IST438-W4-Applications
…
miss_case_summary(titanic)

# A tibble: 2,207 × 3
    case n_miss pct_miss
   <int>  <int>    <dbl>
 1   577      4     44.4
 2   145      3     33.3
 3   151      3     33.3
 4   238      3     33.3
 5   517      3     33.3
 6   616      3     33.3
 7   681      3     33.3
 8  1095      3     33.3
 9  1190      3     33.3
10  1305      3     33.3
# … with 2,197 more rows
…
