IST438-W5-Applications
…
Make predictions by using the trained model:

apartments_predictions <- dt_apartments |> 
  predict(new_data = apartments_test)

apartments_predictions

# A tibble: 200 × 1
   .pred
   <dbl>
 1 3749.
 2 3345.
 3 2590.
 4 4842.
 5 4065.
 6 3267.
 7 3267.
 8 3345.
 9 3267.
10 4065.
# … with 190 more rows

Evaluating model performance:

{yardstick} package is used to evaluate/measure the model performance. Its functions require a data.frame or tibble with model results. To combine the model prediction and actual/observed values of target variable in test data, cbind() function can be used as follows:

apartments_results <- tibble(predicted = apartments_predictions$.pred,
                             actual    = apartments_test$m2.price)

apartments_results

# A tibble: 200 × 2
   predicted actual
       <dbl>  <dbl>
 1     3749.   3643
 2     3345.   3517
 3     2590.   2346
 4     4842.   4745
 5     4065.   3961
 6     3267.   3378
 7     3267.   3274
 8     3345.   3134
 9     3267.   3502
10     4065.   4297
# … with 190 more rows
…
Collecting metrics:

apartments_last_fit |> collect_metrics()

# A tibble: 2 × 4
  .metric .estimator .estimate .config             
  <chr>   <chr>          <dbl> <chr>               
1 rmse    standard     363.    Preprocessor1_Model1
2 rsq     standard       0.810 Preprocessor1_Model1

Collecting predictions:

apartments_last_fit |> collect_predictions()

# A tibble: 200 × 5
   id               .pred  .row m2.price .config             
   <chr>            <dbl> <int>    <dbl> <chr>               
 1 train/test split 3749.     3     3643 Preprocessor1_Model1
 2 train/test split 3345.     4     3517 Preprocessor1_Model1
 3 train/test split 2590.     8     2346 Preprocessor1_Model1
 4 train/test split 4842.     9     4745 Preprocessor1_Model1
 5 train/test split 4065.    11     3961 Preprocessor1_Model1
 6 train/test split 3267.    18     3378 Preprocessor1_Model1
 7 train/test split 3267.    19     3274 Preprocessor1_Model1
 8 train/test split 3345.    28     3134 Preprocessor1_Model1
 9 train/test split 3267.    38     3502 Preprocessor1_Model1
10 train/test split 4065.    44     4297 Preprocessor1_Model1
# … with 190 more rows
…
Make predictions by using the trained model. If you want to calculate the predicted probabilities, it is necessary to assign the type argument as "prob".

titanic_predictions <- dt_titanic |> 
  predict(new_data = titanic_test)

titanic_predictions

# A tibble: 442 × 1
   .pred_class
   <fct>      
 1 no         
 2 yes        
 3 no         
 4 no         
 5 no         
 6 no         
 7 no         
 8 yes        
 9 no         
10 no         
# … with 432 more rows

If you want to calculate the predicted probabilities, it is necessary to assign the type argument as "prob".

dt_titanic |> 
  predict(new_data = titanic_test,
          type     = "prob")

# A tibble: 442 × 2
   .pred_no .pred_yes
      <dbl>     <dbl>
 1   0.828      0.172
 2   0.0822     0.918
 3   0.828      0.172
 4   0.828      0.172
 5   0.828      0.172
 6   0.828      0.172
 7   0.828      0.172
 8   0.0822     0.918
 9   0.828      0.172
10   0.828      0.172
# … with 432 more rows
…
Collecting metrics:

titanic_last_fit |> collect_metrics()

# A tibble: 2 × 4
  .metric  .estimator .estimate .config             
  <chr>    <chr>          <dbl> <chr>               
1 accuracy binary         0.844 Preprocessor1_Model1
2 roc_auc  binary         0.818 Preprocessor1_Model1

Collecting predictions:

titanic_last_fit |> collect_predictions()

# A tibble: 442 × 7
   id               .pred_no .pred_yes  .row .pred_class survived .config       
   <chr>               <dbl>     <dbl> <int> <fct>       <fct>    <chr>         
 1 train/test split   0.828      0.172     3 no          no       Preprocessor1…
 2 train/test split   0.0822     0.918    21 yes         yes      Preprocessor1…
 3 train/test split   0.828      0.172    22 no          no       Preprocessor1…
 4 train/test split   0.828      0.172    28 no          no       Preprocessor1…
 5 train/test split   0.828      0.172    42 no          no       Preprocessor1…
 6 train/test split   0.828      0.172    43 no          no       Preprocessor1…
 7 train/test split   0.828      0.172    47 no          no       Preprocessor1…
 8 train/test split   0.0822     0.918    50 yes         yes      Preprocessor1…
 9 train/test split   0.828      0.172    53 no          no       Preprocessor1…
10 train/test split   0.828      0.172    57 no          no       Preprocessor1…
# … with 432 more rows
…
